<svg width="282" height="213" viewBox="0 0 282 213" fill="none" xmlns="http://www.w3.org/2000/svg">
<g clip-path="url(#clip0)">
<g opacity="0.61">
<path opacity="0.62" d="M1.47296 151.346C0.559741 150.306 0.039743 148.984 0.00218661 147.605C-0.0353698 146.227 0.411857 144.878 1.26713 143.791C2.98235 141.834 7.23611 140.711 9.1057 142.923C10.9753 145.135 8.3167 148.317 7.66491 151.108C6.85876 154.903 3.42831 153.558 1.47296 151.346Z" fill="#FFC09D"/>
<path opacity="0.62" d="M179.222 0.900307C181.324 -0.0571618 183.696 -0.25814 185.931 0.331932C188.166 0.922004 190.124 2.26625 191.468 4.13351C193.767 7.8602 193.63 15.0243 189.17 16.9642C184.71 18.9041 180.868 13.1865 176.666 10.8552C170.868 7.62196 174.762 2.84023 179.222 0.900307Z" fill="#FFC09D"/>
<path opacity="0.62" d="M279.854 118.538C281.011 119.659 281.748 121.139 281.945 122.731C282.141 124.324 281.785 125.936 280.934 127.302C279.219 130.075 274.622 132.577 272.358 130.501C270.094 128.425 272.633 123.983 273.027 120.563C273.507 115.764 277.504 116.479 279.854 118.538Z" fill="#FFC09D"/>
<path opacity="0.28" d="M18.1449 197.241C15.4691 181.568 19.7572 168.193 20.8378 152.827C21.8498 138.277 17.4073 126.042 15.0232 112.191C12.9983 99.4178 13.429 86.3803 16.2924 73.7665C19.9973 57.2261 28.5563 41.8939 40.8716 32.5517C60.0306 18.0022 85.759 19.7039 106.891 29.7269C115.775 33.913 124.369 39.4945 133.888 40.8899C147.764 42.949 161.332 35.904 174.779 31.6838C193.183 25.9321 213.372 25.5067 230.73 34.5767C250.42 44.8889 264.4 68.1169 262.77 93.6422C262.033 105.231 258.242 116.683 259.58 128.203C260.918 139.724 266.835 149.662 269.871 160.655C274.125 175.663 274.519 197.734 267.676 212.981H22.7588C20.62 207.927 19.0719 202.645 18.1449 197.241Z" fill="#FFC09D"/>
<g opacity="0.47">
<path opacity="0.47" d="M235.653 136.184C234.863 124.847 230.247 114.105 222.548 105.69C210.542 93.1828 192.309 90.0177 176.374 92.9105C169.685 94.1187 163.064 96.3139 156.221 95.5992C146.238 94.6122 137.456 87.8565 128.365 82.9046C115.999 76.0979 101.831 72.5414 88.675 75.4683C81.0381 77.1616 74.1439 81.2255 68.9931 87.07C63.8423 92.9146 60.7029 100.236 60.0308 107.97C59.3618 115.526 66.0855 128.833 63.9586 135.98C61.8318 143.127 46.1203 165.47 46.4977 182.385C46.875 199.3 50.4941 204.507 55.6055 213.016H222.463C225.636 204.337 228.14 197.394 224.418 186.01C221.451 176.906 229.564 169.401 232.651 160.927C235.374 152.976 236.397 144.549 235.653 136.184Z" fill="#FFC09D"/>
</g>
</g>
<path d="M194.144 76.1659H202.995C203.157 76.1658 203.317 76.1982 203.466 76.2612C203.615 76.3243 203.75 76.4166 203.862 76.5327C203.975 76.6488 204.062 76.7862 204.119 76.9366C204.176 77.0871 204.202 77.2475 204.195 77.4082L203.835 87.9246C203.825 88.1616 203.885 88.3963 204.01 88.5987C204.135 88.8011 204.318 88.962 204.535 89.0607C204.752 89.1594 204.995 89.1915 205.231 89.1528C205.466 89.1141 205.685 89.0064 205.859 88.8435L219.186 76.4893C219.409 76.2814 219.704 76.1657 220.01 76.1659H238.706C239.406 76.1659 240.078 75.8898 240.573 75.3984C241.069 74.9069 241.347 74.2404 241.347 73.5453V29.3015C241.347 28.6065 241.069 27.9399 240.573 27.4485C240.078 26.957 239.406 26.6809 238.706 26.6809H194.11C193.409 26.6809 192.737 26.957 192.242 27.4485C191.747 27.9399 191.468 28.6065 191.468 29.3015V73.5453C191.468 73.8924 191.538 74.2359 191.673 74.5561C191.808 74.8763 192.005 75.1667 192.254 75.4105C192.503 75.6543 192.798 75.8466 193.123 75.9763C193.447 76.106 193.794 76.1704 194.144 76.1659Z" fill="#FCA97C"/>
<path d="M213.235 43.0001L215.241 39.5117C215.405 39.2061 215.635 38.9398 215.913 38.7311C216.192 38.5225 216.513 38.3765 216.854 38.3035C217.332 38.2086 217.829 38.2662 218.272 38.4678C218.716 38.6695 219.084 39.0051 219.324 39.4266L221.794 43.7318L220.541 44.4295C220.428 44.4955 220.333 44.5899 220.267 44.7034C220.202 44.8168 220.167 44.9453 220.167 45.0762C220.167 45.207 220.202 45.3355 220.267 45.449C220.333 45.5625 220.428 45.6569 220.541 45.7228L224.984 48.2924C225.15 48.4047 225.344 48.4695 225.545 48.4797C225.746 48.4899 225.946 48.4451 226.123 48.3503C226.3 48.2555 226.447 48.1142 226.549 47.9419C226.651 47.7697 226.702 47.573 226.699 47.3735V42.2684C226.702 42.1376 226.67 42.0083 226.606 41.8941C226.542 41.7798 226.448 41.6847 226.334 41.6186C226.22 41.5526 226.091 41.5181 225.959 41.5186C225.827 41.5192 225.697 41.5548 225.584 41.6218L224.315 42.3365L221.948 38.2014C221.531 37.4483 220.935 36.808 220.212 36.3363C219.488 35.8646 218.659 35.576 217.797 35.4957C216.832 35.4243 215.866 35.6244 215.011 36.0729C214.155 36.5214 213.445 37.2001 212.96 38.0312L210.953 41.4346C210.774 41.7295 210.706 42.0785 210.763 42.4185C210.819 42.7586 210.996 43.0674 211.262 43.2894C211.421 43.4106 211.604 43.4967 211.799 43.542C211.994 43.5872 212.197 43.5907 212.393 43.552C212.59 43.5133 212.775 43.4335 212.938 43.3177C213.101 43.202 213.237 43.0531 213.337 42.881L213.235 43.0001Z" fill="white"/>
<path d="M222.72 63.9308H227.642C228.471 63.9467 229.291 63.7704 230.039 63.4159C230.786 63.0613 231.44 62.5384 231.948 61.8888C232.544 61.1047 232.895 60.1638 232.956 59.1833C233.017 58.2028 232.785 57.2262 232.291 56.3753L230.215 52.8018C230.053 52.5085 229.794 52.2792 229.482 52.1522C229.17 52.0253 228.823 52.0083 228.5 52.1041C228.313 52.1758 228.144 52.2867 228.004 52.4294C227.864 52.5721 227.757 52.743 227.691 52.9306C227.624 53.1181 227.599 53.3178 227.617 53.5158C227.635 53.7139 227.697 53.9057 227.797 54.0781L229.838 57.6346C230.016 57.9249 230.13 58.2497 230.172 58.5873C230.213 58.9248 230.181 59.2672 230.078 59.5915C229.923 60.0505 229.625 60.4491 229.228 60.7302C228.83 61.0114 228.353 61.1608 227.865 61.1571H222.72V59.7277C222.72 59.5983 222.685 59.4712 222.62 59.3593C222.555 59.2475 222.46 59.1548 222.347 59.0908C222.234 59.0268 222.105 58.9938 221.975 58.995C221.845 58.9963 221.717 59.0318 221.605 59.098L217.42 61.4804C217.223 61.5899 217.06 61.7493 216.946 61.9422C216.833 62.1351 216.773 62.3545 216.773 62.578C216.773 62.8014 216.833 63.0209 216.946 63.2137C217.06 63.4066 217.223 63.566 217.42 63.6756L221.605 66.0749C221.717 66.1411 221.845 66.1767 221.975 66.1779C222.105 66.1792 222.234 66.1461 222.347 66.0822C222.46 66.0182 222.555 65.9255 222.62 65.8136C222.685 65.7018 222.72 65.5747 222.72 65.4453V63.9989V63.9308Z" fill="white"/>
<path d="M202.394 61.4123C202.848 62.1775 203.494 62.8123 204.27 63.2539C205.046 63.6956 205.925 63.9289 206.82 63.9308H210.25C210.599 63.9416 210.94 63.8296 211.213 63.6146C211.486 63.3997 211.674 63.0957 211.742 62.7566C211.772 62.5607 211.759 62.3607 211.703 62.1704C211.648 61.98 211.552 61.8037 211.422 61.6535C211.291 61.5033 211.13 61.3828 210.949 61.3C210.767 61.2173 210.57 61.1743 210.37 61.174H206.94C206.596 61.1829 206.255 61.1193 205.939 60.9872C205.622 60.8552 205.338 60.6578 205.104 60.4083C204.78 60.0491 204.578 59.5969 204.529 59.1168C204.479 58.6367 204.585 58.1535 204.83 57.7366L207.197 53.6356L208.501 54.3673C208.608 54.4311 208.731 54.4651 208.857 54.4658C208.982 54.4666 209.105 54.434 209.214 54.3715C209.322 54.309 209.412 54.2189 209.474 54.1104C209.535 54.0019 209.566 53.8791 209.564 53.7547V48.4795C209.561 48.3016 209.511 48.1276 209.42 47.9747C209.328 47.8217 209.198 47.6951 209.042 47.6074C208.886 47.5198 208.71 47.474 208.531 47.4747C208.351 47.4755 208.175 47.5226 208.02 47.6116L203.372 50.3173C203.268 50.375 203.182 50.459 203.122 50.5607C203.062 50.6624 203.031 50.778 203.031 50.8959C203.031 51.0137 203.062 51.1293 203.122 51.231C203.182 51.3327 203.268 51.4167 203.372 51.4744L204.727 52.2402L202.394 56.3583C201.932 57.1308 201.689 58.0125 201.689 58.9108C201.689 59.8091 201.932 60.6908 202.394 61.4633V61.4123Z" fill="white"/>
<path d="M114.197 161.982C113.237 161.982 112.299 161.699 111.501 161.17C110.702 160.641 110.08 159.889 109.713 159.009C109.345 158.129 109.249 157.161 109.437 156.227C109.624 155.292 110.086 154.434 110.765 153.761C111.444 153.087 112.309 152.629 113.25 152.443C114.192 152.257 115.168 152.352 116.055 152.717C116.942 153.081 117.7 153.699 118.234 154.491C118.767 155.283 119.052 156.214 119.052 157.166C119.052 158.443 118.54 159.668 117.63 160.571C116.72 161.475 115.485 161.982 114.197 161.982ZM114.197 154.052C113.577 154.052 112.97 154.235 112.454 154.577C111.937 154.919 111.535 155.405 111.298 155.974C111.06 156.543 110.998 157.17 111.119 157.774C111.24 158.378 111.539 158.933 111.978 159.368C112.417 159.804 112.976 160.1 113.585 160.22C114.194 160.341 114.825 160.279 115.399 160.043C115.972 159.807 116.462 159.408 116.807 158.896C117.152 158.384 117.336 157.782 117.336 157.166C117.336 156.34 117.006 155.548 116.417 154.964C115.828 154.38 115.03 154.052 114.197 154.052Z" fill="#FCA97C"/>
<path d="M169.634 161.982C168.673 161.982 167.735 161.699 166.937 161.17C166.138 160.641 165.516 159.889 165.149 159.009C164.782 158.129 164.685 157.161 164.873 156.227C165.06 155.292 165.522 154.434 166.201 153.761C166.88 153.087 167.745 152.629 168.687 152.443C169.628 152.257 170.604 152.352 171.491 152.717C172.378 153.081 173.136 153.699 173.67 154.491C174.203 155.283 174.488 156.214 174.488 157.166C174.488 158.443 173.976 159.668 173.066 160.571C172.156 161.475 170.921 161.982 169.634 161.982ZM169.634 154.052C169.013 154.052 168.406 154.235 167.89 154.577C167.373 154.919 166.971 155.405 166.734 155.974C166.496 156.543 166.434 157.17 166.555 157.774C166.676 158.378 166.975 158.933 167.414 159.368C167.853 159.804 168.412 160.1 169.021 160.22C169.63 160.341 170.261 160.279 170.835 160.043C171.408 159.807 171.898 159.408 172.243 158.896C172.588 158.384 172.772 157.782 172.772 157.166C172.772 156.34 172.442 155.548 171.853 154.964C171.264 154.38 170.466 154.052 169.634 154.052Z" fill="#FCA97C"/>
<path d="M242.239 180.53C241.884 179.37 241.454 178.233 240.952 177.127L232.376 154.495C229.838 142.685 225.447 131.079 218.071 121.329C209.032 109.417 195.43 104.465 181.383 100.789C150.68 92.7234 116.805 94.4421 87.8516 107.8C75.8107 113.348 67.7492 125.974 62.9294 137.801C60.3867 144.131 58.4458 150.682 57.132 157.37H57.3206L49.8937 177.11C49.392 178.216 48.9623 179.353 48.6073 180.513C45.6228 190.417 47.3552 202.091 58.0753 206.328C62.0358 207.889 66.3697 208.268 70.5444 207.419C74.7191 206.569 78.5527 204.528 81.5739 201.546L89.1895 190.74L88.2118 213.05H195.019L194.47 180.615L209.255 201.563C212.276 204.545 216.11 206.586 220.285 207.436C224.459 208.285 228.793 207.906 232.754 206.345C243.56 202.108 245.275 190.434 242.239 180.53Z" fill="#08596C"/>
<path d="M174.831 19.4657C174.834 17.4698 174.39 15.4982 173.532 13.6928C172.674 11.8875 171.424 10.2935 169.87 9.02552C168.316 7.75758 166.498 6.84735 164.548 6.36041C162.597 5.87346 160.561 5.82193 158.588 6.20953C157.648 4.30238 156.169 2.70767 154.331 1.61977C152.494 0.53186 150.377 -0.00225408 148.239 0.0825221C146.101 0.167298 144.034 0.867303 142.29 2.09722C140.546 3.32713 139.2 5.03384 138.417 7.00932H134.111C128.407 7.00932 122.936 9.25755 118.902 13.2594C114.869 17.2613 112.602 22.689 112.602 28.3485V46.2161C112.603 50.1195 113.689 53.9471 115.741 57.2771V42.047C115.741 37.8611 116.981 33.7675 119.308 30.2758C121.635 26.7841 124.946 24.0486 128.828 22.4096C129.08 24.7845 129.97 27.0489 131.404 28.9664C132.839 30.8839 134.766 32.3842 136.984 33.3108C139.203 34.2374 141.631 34.5563 144.016 34.2342C146.401 33.9121 148.655 32.9608 150.543 31.4796C151.404 32.663 152.524 33.6381 153.819 34.3317C155.113 35.0253 156.549 35.4196 158.019 35.4851C159.488 35.5505 160.954 35.2855 162.306 34.7097C163.658 34.134 164.861 33.2624 165.826 32.1602L166.014 32.0751C167.66 35.1456 168.519 38.5698 168.519 42.047V57.7366C170.757 54.3044 171.948 50.3039 171.949 46.2161V28.3485C171.949 28.1443 171.949 27.9401 171.949 27.7358C173.82 25.3789 174.835 22.4654 174.831 19.4657Z" fill="#013035"/>
<path d="M165.26 100.126C165.26 113.994 154.78 125.242 141.864 125.242C128.948 125.242 118.468 114.062 118.468 100.126C118.469 98.4876 118.618 96.853 118.914 95.2417C119.961 89.524 163.682 89.3028 164.779 95.0545C165.099 96.7262 165.26 98.424 165.26 100.126Z" fill="#FCA97C"/>
<path d="M115.707 41.2643L115.741 41.2983V40.8389L115.707 41.2643Z" fill="#B04545"/>
<path d="M171.28 44.072H168.536V42.047C168.536 38.5698 167.677 35.1456 166.031 32.0751L165.843 32.1602C164.878 33.2624 163.675 34.1339 162.323 34.7097C160.971 35.2854 159.505 35.5505 158.036 35.485C156.566 35.4196 155.13 35.0253 153.836 34.3317C152.541 33.638 151.421 32.663 150.56 31.4795C148.672 32.9607 146.418 33.9121 144.033 34.2342C141.648 34.5563 139.22 34.2374 137.001 33.3108C134.783 32.3842 132.856 30.8839 131.421 28.9663C129.987 27.0488 129.097 24.7845 128.845 22.4095C124.963 24.0485 121.652 26.7841 119.325 30.2758C116.998 33.7675 115.758 37.8611 115.758 42.047V44.072H114.506C112.314 44.072 110.211 44.9362 108.66 46.4743C107.11 48.0125 106.239 50.0988 106.239 52.2741V53.2781C106.239 55.4535 107.11 57.5397 108.66 59.0779C110.211 60.6161 112.314 61.4802 114.506 61.4802H115.758V70.9416C115.767 74.5861 116.717 78.1675 118.519 81.3434C120.321 84.5194 122.914 87.1837 126.05 89.0816V98.3728C126.187 102.581 127.969 106.571 131.017 109.499C134.066 112.427 138.144 114.065 142.387 114.065C146.631 114.065 150.708 112.427 153.757 109.499C156.806 106.571 158.587 102.581 158.725 98.3728V88.8774C161.76 86.9494 164.258 84.2944 165.988 81.1569C167.717 78.0195 168.623 74.5006 168.621 70.9246V61.4802H171.383C173.576 61.4802 175.678 60.6161 177.229 59.0779C178.779 57.5397 179.65 55.4535 179.65 53.2781V52.2741C179.65 51.1884 179.433 50.1134 179.011 49.1115C178.589 48.1097 177.971 47.2009 177.193 46.438C176.414 45.675 175.49 45.0729 174.475 44.6668C173.461 44.2607 172.374 44.0585 171.28 44.072Z" fill="#F7C9BF"/>
<path opacity="0.55" d="M137.216 87.1248C134.881 87.1123 132.563 86.7215 130.355 85.9676C130.355 86.359 130.355 86.7504 130.355 87.1418C130.355 90.3123 131.624 93.3529 133.884 95.5948C136.144 97.8367 139.209 99.0961 142.404 99.0961C145.6 99.0961 148.665 97.8367 150.925 95.5948C153.184 93.3529 154.454 90.3123 154.454 87.1418C154.477 86.711 154.477 86.2793 154.454 85.8485C152.128 86.6865 149.673 87.1183 147.198 87.1248H137.216Z" fill="#FF8E77"/>
<path d="M156.992 62.3991L130.972 62.297C118.468 62.297 115.724 43.5785 115.724 43.5785V74.9235C115.724 84.8614 125.346 92.9104 137.216 92.9104H150.938C160.68 92.9104 168.57 86.3078 168.57 78.1567V43.5785C168.57 43.5785 165.86 62.3991 156.992 62.3991Z" fill="#013035"/>
<path d="M111.487 55.3032C111.353 55.3108 111.219 55.2755 111.106 55.2026C110.993 55.1297 110.906 55.0228 110.858 54.8976C110.81 54.7724 110.804 54.6353 110.84 54.5063C110.876 54.3772 110.953 54.263 111.059 54.1801L112.688 52.7677L110.15 49.8918C110.094 49.8293 110.052 49.7565 110.025 49.6778C109.998 49.599 109.988 49.5158 109.993 49.4328C109.999 49.3498 110.021 49.2688 110.058 49.1943C110.095 49.1197 110.147 49.0532 110.21 48.9984C110.273 48.9437 110.346 48.9018 110.425 48.8752C110.505 48.8485 110.589 48.8377 110.672 48.8432C110.756 48.8487 110.838 48.8705 110.913 48.9074C110.988 48.9443 111.055 48.9954 111.11 49.058L114.541 52.9038L111.951 55.1671C111.82 55.2712 111.654 55.3201 111.487 55.3032Z" fill="#FF8970"/>
<path d="M174.299 56.2051C174.142 56.2069 173.99 56.1525 173.87 56.0519L171.28 53.7887L174.711 49.9429C174.83 49.8532 174.977 49.8072 175.127 49.8125C175.277 49.8179 175.42 49.8742 175.533 49.9721C175.646 50.07 175.721 50.2035 175.746 50.35C175.771 50.4966 175.745 50.6472 175.671 50.7767L173.133 53.6525L174.762 55.0649C174.858 55.1523 174.926 55.2663 174.956 55.392C174.986 55.5178 174.977 55.6497 174.931 55.7706C174.885 55.8915 174.803 55.9959 174.697 56.0703C174.59 56.1447 174.464 56.1857 174.333 56.1881L174.299 56.2051Z" fill="#FF8970"/>
<path d="M126.65 43.3745C127.467 43.455 128.291 43.3622 129.069 43.1022C129.909 42.881 130.784 42.6938 131.504 42.5577C132.225 42.4215 133.116 42.2854 133.974 42.1663C134.794 42.1248 135.595 41.9101 136.324 41.5366C136.907 41.1453 137.027 40.3114 136.084 39.4946C135.306 38.9517 134.419 38.5811 133.484 38.4079C132.549 38.2347 131.587 38.2629 130.664 38.4906C129.731 38.6176 128.837 38.9434 128.044 39.4457C127.25 39.9481 126.576 40.6149 126.067 41.4005C125.518 42.4896 125.947 43.2213 126.65 43.3745Z" fill="#013035"/>
<path d="M160.68 43.4084C159.838 43.5888 158.967 43.5888 158.124 43.4084C157.215 43.3233 156.306 43.2382 155.517 43.2212C154.728 43.2042 153.802 43.2212 152.893 43.2212C152.036 43.3061 151.17 43.2075 150.354 42.9319C149.685 42.6086 149.445 41.7748 150.354 40.7708C151.078 40.0941 151.939 39.5785 152.88 39.2586C153.82 38.9387 154.819 38.8219 155.809 38.916C156.783 38.9172 157.746 39.1242 158.633 39.5232C159.52 39.9223 160.312 40.5042 160.954 41.2303C161.709 42.3193 161.383 43.1361 160.68 43.4084Z" fill="#013035"/>
<path d="M142.722 48.1392C142.731 49.1833 143.156 50.1813 143.905 50.9148C144.654 51.6483 145.666 52.0576 146.718 52.053C147.022 52.0508 147.324 52.108 147.606 52.2214C147.887 52.3348 148.144 52.5021 148.361 52.7138C148.577 52.9256 148.75 53.1776 148.868 53.4554C148.986 53.7333 149.049 54.0316 149.051 54.3333V54.6906C149.065 55.3533 148.945 56.0121 148.7 56.6287C148.455 57.2453 148.089 57.8074 147.623 58.2823C147.157 58.7573 146.6 59.1357 145.986 59.3955C145.371 59.6553 144.71 59.7913 144.042 59.7957H140.166" fill="#F7C9BF"/>
<path d="M140.166 60.3742C140.013 60.3494 139.875 60.2717 139.775 60.1548C139.674 60.0379 139.62 59.8895 139.62 59.7361C139.62 59.5827 139.674 59.4344 139.775 59.3175C139.875 59.2006 140.013 59.1228 140.166 59.098H144.077C144.655 59.0958 145.227 58.9803 145.76 58.7582C146.293 58.5362 146.776 58.2119 147.183 57.804C147.589 57.3961 147.91 56.9126 148.128 56.3812C148.345 55.8499 148.455 55.2811 148.45 54.7076V54.3333C148.444 53.8927 148.266 53.4718 147.953 53.1591C147.801 53.0014 147.617 52.8774 147.413 52.7953C147.209 52.7131 146.99 52.6748 146.77 52.6826C146.161 52.6969 145.556 52.5864 144.992 52.358C144.428 52.1296 143.918 51.7883 143.493 51.3553C143.06 50.9335 142.716 50.4304 142.48 49.8754C142.245 49.3203 142.123 48.7244 142.121 48.1221C142.121 47.9535 142.188 47.7916 142.306 47.6708C142.425 47.55 142.586 47.4799 142.756 47.4755C142.926 47.4754 143.089 47.5412 143.211 47.6588C143.333 47.7764 143.403 47.9366 143.408 48.1051C143.41 48.5396 143.499 48.9695 143.67 49.3697C143.84 49.7698 144.089 50.1324 144.403 50.4364C144.711 50.7468 145.08 50.9915 145.487 51.1553C145.894 51.3192 146.33 51.3988 146.77 51.3893C147.549 51.3893 148.297 51.6954 148.85 52.2406C149.402 52.7858 149.715 53.5259 149.72 54.2992V54.6566C149.729 55.3991 149.59 56.1361 149.311 56.8251C149.032 57.5141 148.618 58.1416 148.093 58.6714C147.569 59.2012 146.944 59.6229 146.255 59.9123C145.565 60.2016 144.825 60.3528 144.077 60.3572H140.166V60.3742Z" fill="#FF8970"/>
<path d="M135.892 52.2361C136.782 51.8183 137.163 50.7632 136.742 49.8796C136.321 48.9961 135.257 48.6185 134.367 49.0364C133.476 49.4542 133.095 50.5093 133.517 51.3928C133.938 52.2764 135.001 52.654 135.892 52.2361Z" fill="#013035"/>
<path d="M137.044 53.4144C136.948 53.4362 136.849 53.4362 136.753 53.4144C136.266 53.1431 135.716 53.0006 135.158 53.0006C134.599 53.0006 134.05 53.1431 133.562 53.4144C133.422 53.4771 133.265 53.4887 133.117 53.4472C132.969 53.4058 132.841 53.3138 132.755 53.1877C132.668 53.0615 132.63 52.9093 132.646 52.7577C132.662 52.6062 132.731 52.4651 132.842 52.3594C133.524 51.9728 134.295 51.7695 135.08 51.7695C135.866 51.7695 136.637 51.9728 137.319 52.3594C137.442 52.4286 137.538 52.5355 137.595 52.6641C137.651 52.7927 137.664 52.9359 137.631 53.0722C137.598 53.2085 137.521 53.3305 137.412 53.4198C137.303 53.5092 137.168 53.561 137.027 53.5676L137.044 53.4144Z" fill="#FF8970"/>
<path d="M155.266 52.2345C156.156 51.8167 156.537 50.7616 156.116 49.8781C155.695 48.9945 154.631 48.6169 153.741 49.0348C152.85 49.4526 152.469 50.5077 152.891 51.3913C153.312 52.2748 154.375 52.6524 155.266 52.2345Z" fill="#013035"/>
<path d="M156.426 53.4144C156.33 53.4362 156.231 53.4362 156.135 53.4144C155.649 53.1399 155.099 52.9955 154.54 52.9955C153.98 52.9955 153.431 53.1399 152.944 53.4144C152.803 53.5092 152.63 53.5445 152.463 53.5126C152.296 53.4807 152.148 53.3841 152.053 53.2442C151.957 53.1043 151.921 52.9325 151.954 52.7665C151.986 52.6006 152.083 52.4541 152.224 52.3594C152.906 51.9728 153.677 51.7695 154.462 51.7695C155.248 51.7695 156.019 51.9728 156.701 52.3594C156.824 52.4286 156.92 52.5355 156.977 52.6641C157.033 52.7927 157.046 52.9359 157.013 53.0722C156.98 53.2085 156.903 53.3305 156.794 53.4198C156.685 53.5092 156.55 53.561 156.409 53.5676L156.426 53.4144Z" fill="#FF8970"/>
<path d="M134.043 64.5263C137.379 65.4294 140.798 65.9994 144.248 66.2279C149.239 66.4832 146.975 72.7624 139.446 72.6773C131.916 72.5923 129.909 64.1179 134.043 64.5263Z" fill="white"/>
<path d="M178.484 149.798L179.788 147.62C180.287 146.769 180.431 145.758 180.187 144.803C179.943 143.848 179.332 143.027 178.484 142.515C179.228 142.622 179.986 142.508 180.664 142.187C181.342 141.866 181.909 141.352 182.292 140.711L183.527 138.567C184.025 137.714 184.166 136.701 183.919 135.746C183.672 134.792 183.057 133.971 182.206 133.462L165.997 123.932C165.138 123.438 164.117 123.298 163.154 123.543C162.192 123.789 161.365 124.399 160.852 125.243L159.514 127.387C159.13 128.029 158.948 128.771 158.991 129.516C159.034 130.262 159.3 130.978 159.754 131.573C158.892 131.08 157.87 130.943 156.907 131.191C155.945 131.44 155.119 132.053 154.608 132.9L153.305 135.078C152.892 135.79 152.726 136.616 152.832 137.43C152.937 138.245 153.308 139.002 153.888 139.588C153.091 139.375 152.247 139.427 151.482 139.734C150.717 140.041 150.075 140.587 149.651 141.289L148.348 143.468C147.85 144.32 147.709 145.333 147.956 146.288C148.203 147.243 148.818 148.063 149.668 148.573C148.809 148.078 147.788 147.939 146.825 148.184C145.863 148.429 145.036 149.039 144.523 149.883L143.219 152.061C142.721 152.914 142.58 153.927 142.827 154.882C143.074 155.836 143.689 156.657 144.54 157.166L144.917 157.387C143.952 156.82 142.8 156.656 141.714 156.931C140.627 157.205 139.694 157.895 139.12 158.851L133.116 168.891C132.545 169.848 132.379 170.991 132.656 172.069C132.932 173.147 133.629 174.073 134.592 174.642L152.447 185.142C153.412 185.709 154.564 185.873 155.651 185.599C156.737 185.324 157.67 184.634 158.245 183.678L164.248 173.638C164.819 172.681 164.985 171.538 164.708 170.46C164.432 169.382 163.736 168.457 162.773 167.887L163.15 168.108C164.01 168.602 165.031 168.742 165.993 168.497C166.955 168.252 167.782 167.642 168.296 166.798L169.599 164.62C170.097 163.767 170.238 162.754 169.991 161.799C169.744 160.844 169.129 160.024 168.279 159.514C169.138 160.009 170.159 160.148 171.121 159.903C172.084 159.658 172.911 159.048 173.424 158.204L174.728 156.026C175.147 155.32 175.321 154.497 175.225 153.683C175.129 152.869 174.768 152.108 174.196 151.517C175.002 151.74 175.859 151.692 176.635 151.381C177.411 151.07 178.061 150.514 178.484 149.798Z" fill="#B5EAE0"/>
<path opacity="0.53" d="M146.598 176.906L152.653 166.815C153.836 164.824 153.939 162.697 152.859 162.05L153.064 162.169C154.025 162.731 155.672 161.744 156.735 159.974L158.039 157.796C159.102 156.094 159.188 154.103 158.227 153.542C159.188 154.103 160.834 153.116 161.898 151.346L163.201 149.168C163.613 148.623 163.882 147.984 163.984 147.31C164.086 146.636 164.017 145.947 163.785 145.305C164.447 145.195 165.072 144.926 165.607 144.523C166.142 144.12 166.57 143.595 166.855 142.991L168.09 140.83C169.153 139.128 169.239 137.154 168.278 136.576C168.899 136.41 169.477 136.114 169.974 135.71C170.471 135.305 170.875 134.799 171.16 134.227L172.464 132.049C173.527 130.348 173.613 128.357 172.652 127.795L169.754 126.093L166.014 123.898C165.155 123.404 164.134 123.264 163.171 123.509C162.209 123.754 161.382 124.365 160.869 125.208L159.514 127.387C159.13 128.029 158.948 128.77 158.991 129.516C159.034 130.262 159.299 130.978 159.754 131.573C158.892 131.08 157.87 130.943 156.907 131.191C155.944 131.44 155.119 132.053 154.608 132.9L153.305 135.078C153.197 135.272 153.1 135.471 153.013 135.674C152.763 136.335 152.706 137.054 152.849 137.746C152.992 138.438 153.328 139.076 153.819 139.588C153.13 139.403 152.402 139.415 151.719 139.623C151.036 139.831 150.426 140.225 149.96 140.762C149.84 140.932 149.703 141.085 149.583 141.272L148.279 143.451C147.781 144.303 147.64 145.316 147.887 146.271C148.134 147.226 148.749 148.046 149.6 148.556C148.74 148.061 147.719 147.922 146.757 148.167C145.794 148.412 144.967 149.022 144.454 149.866L143.15 152.044C142.652 152.897 142.512 153.91 142.759 154.865C143.006 155.819 143.621 156.64 144.471 157.149L144.848 157.37C143.884 156.803 142.732 156.639 141.645 156.913C140.558 157.188 139.625 157.878 139.051 158.834L133.048 168.874C132.476 169.831 132.311 170.974 132.587 172.052C132.864 173.13 133.56 174.056 134.523 174.625L136.718 175.919L142.43 179.322C143.579 180.003 145.415 178.897 146.598 176.906Z" fill="#C5F9EF"/>
<path d="M171.177 122.367C171.042 122.276 170.921 122.168 170.817 122.043L168.759 125.447L179.565 131.794L181.623 128.391C181.462 128.362 181.306 128.31 181.16 128.237L171.177 122.367Z" fill="#B5EAE0"/>
<path opacity="0.56" d="M171.177 122.367C171.042 122.276 170.921 122.168 170.817 122.043L168.759 125.447L179.565 131.794L181.623 128.391C181.462 128.362 181.306 128.31 181.16 128.237L171.177 122.367Z" fill="#008F7E"/>
<path d="M182.755 125.974L172.464 119.916C172.13 119.717 171.848 119.443 171.64 119.116C171.319 119.173 171.02 119.319 170.78 119.537C170.539 119.756 170.366 120.038 170.282 120.351C170.197 120.663 170.204 120.994 170.302 121.302C170.4 121.611 170.584 121.886 170.834 122.094C170.938 122.219 171.059 122.327 171.194 122.418L181.177 128.289C181.323 128.361 181.479 128.413 181.64 128.442C181.944 128.559 182.275 128.587 182.595 128.524C182.914 128.462 183.209 128.31 183.445 128.086C183.681 127.863 183.847 127.578 183.926 127.264C184.004 126.951 183.991 126.621 183.887 126.315C183.488 126.292 183.1 126.176 182.755 125.974Z" fill="#B5EAE0"/>
<path d="M182.755 125.974L172.464 119.916C172.13 119.717 171.848 119.443 171.64 119.116C171.319 119.173 171.02 119.319 170.78 119.537C170.539 119.756 170.366 120.038 170.282 120.351C170.197 120.663 170.204 120.994 170.302 121.302C170.4 121.611 170.584 121.886 170.834 122.094C170.938 122.219 171.059 122.327 171.194 122.418L181.177 128.289C181.323 128.361 181.479 128.413 181.64 128.442C181.944 128.559 182.275 128.587 182.595 128.524C182.914 128.462 183.209 128.31 183.445 128.086C183.681 127.863 183.847 127.578 183.926 127.264C184.004 126.951 183.991 126.621 183.887 126.315C183.488 126.292 183.1 126.176 182.755 125.974Z" fill="#B5EAE0"/>
<path d="M185.328 121.618L175.036 115.56C174.546 115.253 173.965 115.123 173.389 115.192C172.814 115.26 172.28 115.524 171.877 115.937C171.475 116.351 171.228 116.889 171.178 117.462C171.129 118.035 171.28 118.607 171.606 119.082C171.814 119.409 172.096 119.683 172.429 119.882L182.721 125.94C183.297 126.261 183.976 126.349 184.616 126.184C185.255 126.019 185.806 125.614 186.151 125.055C186.5 124.491 186.61 123.812 186.456 123.168C186.301 122.523 185.896 121.966 185.328 121.618Z" fill="#FCA97C"/>
<path opacity="0.56" d="M178.535 143.348H178.347L159.514 132.185C159.373 132.082 159.276 131.931 159.241 131.761C159.207 131.59 159.238 131.414 159.328 131.265C159.418 131.116 159.561 131.006 159.728 130.956C159.896 130.906 160.076 130.919 160.234 130.994L179.101 142.072C179.247 142.158 179.356 142.293 179.41 142.452C179.463 142.611 179.457 142.784 179.392 142.939C179.328 143.094 179.209 143.22 179.058 143.296C178.907 143.371 178.734 143.39 178.57 143.348H178.535Z" fill="#008F7E"/>
<path opacity="0.56" d="M173.527 151.738H173.338L154.471 140.66C154.383 140.618 154.304 140.558 154.24 140.484C154.176 140.411 154.129 140.324 154.101 140.231C154.073 140.138 154.064 140.04 154.076 139.944C154.088 139.848 154.121 139.755 154.171 139.671C154.222 139.588 154.289 139.516 154.369 139.46C154.449 139.404 154.54 139.365 154.636 139.346C154.732 139.327 154.831 139.328 154.927 139.349C155.022 139.37 155.112 139.411 155.191 139.469L174.059 150.547C174.204 150.632 174.314 150.767 174.367 150.926C174.42 151.085 174.414 151.258 174.35 151.413C174.285 151.568 174.166 151.695 174.015 151.77C173.864 151.845 173.691 151.864 173.527 151.823V151.738Z" fill="#008F7E"/>
<path opacity="0.56" d="M168.364 160.365H168.176L149.308 149.287C149.22 149.245 149.141 149.186 149.077 149.112C149.014 149.038 148.966 148.952 148.938 148.859C148.91 148.766 148.901 148.668 148.913 148.571C148.926 148.475 148.958 148.382 149.008 148.299C149.059 148.215 149.126 148.144 149.206 148.088C149.286 148.032 149.377 147.993 149.473 147.974C149.569 147.955 149.668 147.956 149.764 147.977C149.86 147.998 149.95 148.038 150.028 148.096L168.896 159.174C169.041 159.26 169.151 159.394 169.204 159.554C169.258 159.713 169.251 159.886 169.187 160.041C169.122 160.196 169.004 160.322 168.853 160.398C168.701 160.473 168.528 160.492 168.364 160.45V160.365Z" fill="#008F7E"/>
<path opacity="0.56" d="M163.219 169.01H163.03L144.162 157.932C144.074 157.89 143.996 157.83 143.932 157.756C143.868 157.683 143.82 157.597 143.792 157.503C143.764 157.41 143.756 157.313 143.768 157.216C143.78 157.12 143.812 157.027 143.863 156.943C143.913 156.86 143.98 156.788 144.061 156.732C144.141 156.676 144.232 156.637 144.328 156.618C144.424 156.599 144.523 156.6 144.618 156.621C144.714 156.642 144.804 156.683 144.883 156.741L163.75 167.819C163.896 167.904 164.005 168.039 164.059 168.198C164.112 168.357 164.106 168.53 164.041 168.685C163.977 168.84 163.858 168.967 163.707 169.042C163.556 169.117 163.382 169.136 163.219 169.095V169.01Z" fill="#008F7E"/>
<path opacity="0.28" d="M177.129 136.32C177.977 136.833 178.588 137.654 178.832 138.609C179.076 139.563 178.932 140.575 178.433 141.426L177.129 143.604C176.708 144.308 176.065 144.856 175.3 145.163C174.535 145.471 173.689 145.521 172.892 145.305C173.464 145.897 173.826 146.658 173.922 147.472C174.018 148.286 173.843 149.108 173.424 149.815L172.121 151.993C171.607 152.837 170.78 153.447 169.818 153.692C168.855 153.937 167.835 153.797 166.975 153.303C167.826 153.813 168.441 154.633 168.688 155.588C168.935 156.543 168.794 157.555 168.296 158.408L166.992 160.586C166.479 161.43 165.652 162.04 164.689 162.286C163.727 162.531 162.706 162.391 161.846 161.897L161.4 161.71C161.885 161.986 162.31 162.355 162.651 162.796C162.991 163.236 163.24 163.739 163.384 164.275C163.527 164.811 163.562 165.37 163.487 165.92C163.411 166.47 163.227 167 162.944 167.478L156.941 177.518C156.366 178.474 155.434 179.164 154.347 179.439C153.26 179.713 152.108 179.549 151.143 178.982L133.339 168.516L133.099 168.925C132.528 169.882 132.362 171.025 132.639 172.103C132.915 173.181 133.611 174.107 134.574 174.676L152.43 185.176C153.395 185.743 154.547 185.907 155.633 185.633C156.72 185.358 157.653 184.668 158.227 183.712L164.231 173.672C164.802 172.715 164.968 171.572 164.691 170.494C164.415 169.416 163.719 168.491 162.756 167.921L163.133 168.142C163.993 168.636 165.013 168.776 165.976 168.531C166.938 168.286 167.765 167.676 168.279 166.832L169.582 164.654C170.08 163.801 170.221 162.788 169.974 161.833C169.727 160.878 169.112 160.058 168.261 159.548C169.121 160.043 170.142 160.182 171.104 159.937C172.067 159.692 172.894 159.082 173.407 158.238L174.711 156.06C175.129 155.354 175.304 154.531 175.208 153.717C175.112 152.903 174.751 152.142 174.179 151.551C174.975 151.766 175.821 151.716 176.586 151.408C177.352 151.101 177.994 150.553 178.416 149.849L179.719 147.671C180.219 146.82 180.362 145.809 180.118 144.854C179.875 143.899 179.263 143.078 178.416 142.566C179.159 142.673 179.918 142.559 180.596 142.238C181.274 141.917 181.84 141.403 182.223 140.762L183.527 138.567C184.025 137.714 184.166 136.701 183.919 135.746C183.672 134.791 183.057 133.971 182.206 133.462L181.709 133.172L180.885 134.551C180.501 135.177 179.941 135.678 179.274 135.992C178.606 136.307 177.861 136.421 177.129 136.32Z" fill="#008F7E"/>
<path d="M147.13 159.089L147.713 161.539C147.94 162.505 147.774 163.52 147.25 164.365C146.727 165.209 145.888 165.815 144.917 166.049C145.659 166.168 146.349 166.503 146.899 167.012C147.449 167.521 147.834 168.181 148.004 168.908L148.588 171.358C148.82 172.326 148.656 173.346 148.132 174.194C147.608 175.043 146.767 175.651 145.792 175.885L127.456 180.139C126.478 180.363 125.45 180.194 124.598 179.667C123.746 179.141 123.139 178.301 122.911 177.331L122.328 174.881C122.158 174.155 122.209 173.396 122.474 172.699C122.74 172.002 123.208 171.399 123.82 170.967C122.844 171.186 121.821 171.014 120.973 170.488C120.125 169.962 119.52 169.125 119.292 168.159L118.708 165.709C118.52 164.909 118.601 164.07 118.939 163.32C119.277 162.571 119.852 161.951 120.578 161.556C119.752 161.523 118.959 161.222 118.321 160.7C117.683 160.177 117.235 159.462 117.045 158.664L116.462 156.213C116.235 155.243 116.406 154.223 116.937 153.378C117.467 152.533 118.314 151.93 119.292 151.704C118.314 151.928 117.286 151.759 116.434 151.232C115.582 150.706 114.975 149.866 114.746 148.896L114.146 146.394C113.92 145.424 114.091 144.405 114.621 143.559C115.152 142.714 115.999 142.112 116.976 141.885L117.405 141.783C116.86 141.917 116.293 141.942 115.738 141.857C115.183 141.771 114.65 141.577 114.171 141.286C113.693 140.995 113.277 140.612 112.949 140.159C112.62 139.707 112.386 139.195 112.259 138.652L109.583 127.285C109.448 126.744 109.423 126.181 109.509 125.631C109.595 125.08 109.791 124.552 110.084 124.077C110.378 123.602 110.764 123.189 111.22 122.863C111.676 122.538 112.192 122.305 112.739 122.179L132.945 117.5C133.49 117.366 134.057 117.341 134.612 117.426C135.167 117.511 135.699 117.705 136.178 117.997C136.657 118.288 137.073 118.671 137.401 119.123C137.729 119.576 137.964 120.088 138.09 120.631L140.766 131.998C140.901 132.539 140.927 133.101 140.841 133.652C140.755 134.203 140.559 134.731 140.265 135.206C139.972 135.681 139.586 136.094 139.13 136.419C138.674 136.745 138.157 136.977 137.61 137.103L138.039 137.001C139.017 136.777 140.045 136.946 140.897 137.473C141.749 137.999 142.356 138.839 142.584 139.809L143.168 142.259C143.394 143.23 143.223 144.249 142.692 145.095C142.162 145.94 141.315 146.542 140.337 146.769C141.315 146.544 142.343 146.714 143.195 147.24C144.047 147.767 144.654 148.607 144.883 149.577L145.466 152.027C145.657 152.827 145.577 153.667 145.239 154.417C144.902 155.167 144.324 155.787 143.596 156.179C144.425 156.214 145.219 156.517 145.858 157.043C146.496 157.568 146.943 158.287 147.13 159.089Z" fill="#B5EAE0"/>
<path opacity="0.53" d="M124.918 123.779L127.593 135.146C128.125 137.41 127.593 139.469 126.341 139.741H126.581C127.679 139.486 128.948 140.915 129.429 142.94L130.012 145.391C130.492 147.416 130.012 149.253 128.897 149.509C129.995 149.253 131.264 150.683 131.744 152.708L132.327 155.158C132.555 155.802 132.618 156.493 132.51 157.167C132.403 157.841 132.127 158.478 131.71 159.021C132.326 159.323 132.857 159.771 133.255 160.327C133.653 160.882 133.906 161.527 133.991 162.203L134.574 164.654C135.055 166.662 134.574 168.499 133.459 168.772C133.996 169.109 134.455 169.554 134.807 170.079C135.158 170.604 135.395 171.196 135.5 171.818L136.084 174.268C136.564 176.293 136.084 178.131 134.969 178.386L131.676 179.152L127.439 180.139C126.461 180.363 125.433 180.194 124.581 179.667C123.729 179.141 123.122 178.301 122.894 177.331L122.31 174.881C122.14 174.155 122.192 173.396 122.457 172.699C122.723 172.002 123.191 171.399 123.803 170.967C122.827 171.186 121.804 171.014 120.956 170.488C120.107 169.962 119.503 169.125 119.274 168.159L118.691 165.709C118.652 165.495 118.623 165.279 118.606 165.062C118.57 164.355 118.737 163.653 119.086 163.036C119.434 162.419 119.952 161.912 120.578 161.574C119.865 161.545 119.174 161.318 118.586 160.918C117.997 160.517 117.534 159.96 117.251 159.31C117.251 159.106 117.096 158.919 117.045 158.715L116.462 156.264C116.235 155.294 116.406 154.274 116.937 153.429C117.467 152.584 118.314 151.982 119.292 151.755C118.314 151.979 117.286 151.81 116.434 151.283C115.582 150.757 114.975 149.917 114.746 148.947L114.146 146.394C113.92 145.424 114.091 144.405 114.621 143.559C115.152 142.714 115.999 142.112 116.976 141.885L117.405 141.783C116.86 141.917 116.293 141.942 115.738 141.857C115.183 141.771 114.65 141.577 114.171 141.286C113.693 140.995 113.277 140.612 112.949 140.159C112.62 139.707 112.386 139.195 112.259 138.652L109.583 127.285C109.448 126.744 109.423 126.181 109.509 125.631C109.595 125.08 109.791 124.552 110.084 124.077C110.378 123.602 110.764 123.189 111.22 122.864C111.676 122.538 112.192 122.305 112.739 122.18L115.227 121.601L121.779 120.206C122.962 119.916 124.386 121.516 124.918 123.779Z" fill="#C5F9EF"/>
<path d="M131.83 183.117C131.672 183.163 131.522 183.232 131.384 183.321L130.475 179.424L142.704 176.582L143.614 180.479C143.449 180.455 143.281 180.455 143.116 180.479L131.83 183.117Z" fill="#B5EAE0"/>
<path opacity="0.56" d="M131.83 183.117C131.672 183.163 131.522 183.232 131.384 183.321L130.475 179.424L142.704 176.582L143.614 180.479C143.449 180.455 143.281 180.455 143.116 180.479L131.83 183.117Z" fill="#008F7E"/>
<path d="M143.957 183.168L132.276 185.874C131.898 185.962 131.545 186.137 131.247 186.384C130.958 186.234 130.718 186.006 130.555 185.725C130.392 185.445 130.313 185.124 130.328 184.801C130.342 184.477 130.449 184.165 130.636 183.9C130.823 183.635 131.083 183.428 131.384 183.304C131.522 183.215 131.672 183.146 131.83 183.1L143.116 180.428C143.281 180.404 143.449 180.404 143.614 180.428C143.937 180.41 144.258 180.483 144.541 180.638C144.824 180.794 145.057 181.025 145.213 181.306C145.369 181.587 145.442 181.907 145.423 182.227C145.404 182.547 145.294 182.856 145.106 183.117C144.724 183.045 144.33 183.063 143.957 183.168Z" fill="#B5EAE0"/>
<path d="M143.957 183.168L132.276 185.874C131.898 185.962 131.545 186.137 131.247 186.384C130.958 186.234 130.718 186.006 130.555 185.725C130.392 185.445 130.313 185.124 130.328 184.801C130.342 184.477 130.449 184.165 130.636 183.9C130.823 183.635 131.083 183.428 131.384 183.304C131.522 183.215 131.672 183.146 131.83 183.1L143.116 180.428C143.281 180.404 143.449 180.404 143.614 180.428C143.937 180.41 144.258 180.483 144.541 180.638C144.824 180.794 145.057 181.025 145.213 181.306C145.369 181.587 145.442 181.907 145.423 182.227C145.404 182.547 145.294 182.856 145.106 183.117C144.724 183.045 144.33 183.063 143.957 183.168Z" fill="#B5EAE0"/>
<path d="M145.106 188.052L133.425 190.757C132.87 190.89 132.285 190.83 131.768 190.59C131.25 190.349 130.831 189.941 130.577 189.433C130.324 188.925 130.253 188.346 130.374 187.792C130.496 187.238 130.804 186.742 131.247 186.384C131.545 186.137 131.898 185.962 132.276 185.874L143.957 183.168C144.609 183.024 145.292 183.14 145.859 183.49C146.427 183.84 146.834 184.396 146.993 185.04C147.069 185.36 147.081 185.693 147.027 186.018C146.973 186.343 146.856 186.655 146.68 186.935C146.505 187.215 146.276 187.457 146.005 187.649C145.735 187.841 145.43 187.978 145.106 188.052Z" fill="#FCA97C"/>
<path opacity="0.56" d="M145.209 165.3H145.003L123.666 170.218C123.484 170.261 123.326 170.374 123.228 170.532C123.13 170.69 123.099 170.88 123.142 171.06C123.186 171.241 123.299 171.397 123.459 171.494C123.618 171.592 123.809 171.622 123.991 171.579L145.329 166.628C145.495 166.591 145.643 166.496 145.744 166.359C145.845 166.223 145.893 166.055 145.878 165.886C145.864 165.717 145.787 165.56 145.664 165.443C145.541 165.325 145.379 165.257 145.209 165.249V165.3Z" fill="#008F7E"/>
<path opacity="0.56" d="M142.979 155.805H142.773L121.436 160.774C121.346 160.795 121.261 160.834 121.186 160.887C121.111 160.941 121.047 161.009 120.998 161.087C120.95 161.166 120.917 161.253 120.903 161.343C120.888 161.434 120.891 161.527 120.913 161.616C120.934 161.705 120.973 161.79 121.027 161.864C121.081 161.939 121.15 162.002 121.229 162.05C121.308 162.098 121.395 162.131 121.487 162.145C121.578 162.16 121.672 162.156 121.762 162.135L143.099 157.183C143.266 157.147 143.413 157.051 143.514 156.915C143.616 156.779 143.663 156.61 143.648 156.442C143.634 156.273 143.558 156.115 143.435 155.998C143.311 155.881 143.149 155.812 142.979 155.805Z" fill="#008F7E"/>
<path opacity="0.56" d="M140.646 146.037H140.44L119.12 151.006C119.03 151.027 118.945 151.066 118.87 151.12C118.795 151.174 118.731 151.241 118.683 151.32C118.634 151.398 118.602 151.485 118.587 151.576C118.572 151.666 118.576 151.759 118.597 151.848C118.618 151.938 118.657 152.022 118.712 152.097C118.766 152.171 118.834 152.234 118.913 152.282C118.992 152.331 119.08 152.363 119.171 152.377C119.262 152.392 119.356 152.389 119.446 152.367L140.783 147.415C140.95 147.379 141.098 147.284 141.199 147.147C141.3 147.011 141.347 146.843 141.333 146.674C141.318 146.505 141.242 146.348 141.119 146.231C140.996 146.113 140.834 146.045 140.663 146.037H140.646Z" fill="#008F7E"/>
<path opacity="0.56" d="M138.365 136.184H138.159L116.822 141.289C116.732 141.311 116.647 141.349 116.572 141.403C116.497 141.457 116.433 141.525 116.384 141.603C116.336 141.681 116.303 141.768 116.288 141.859C116.274 141.95 116.277 142.042 116.299 142.132C116.32 142.221 116.359 142.305 116.413 142.38C116.467 142.454 116.536 142.518 116.615 142.566C116.694 142.614 116.781 142.646 116.873 142.661C116.964 142.675 117.058 142.672 117.148 142.651L138.485 137.699C138.652 137.662 138.799 137.567 138.9 137.431C139.001 137.294 139.049 137.126 139.034 136.957C139.02 136.789 138.944 136.631 138.821 136.514C138.697 136.397 138.535 136.328 138.365 136.32V136.184Z" fill="#008F7E"/>
<path opacity="0.28" d="M141.727 171.596C142.698 171.362 143.536 170.757 144.06 169.912C144.584 169.068 144.75 168.052 144.523 167.087L143.939 164.636C143.757 163.834 143.314 163.114 142.679 162.585C142.044 162.056 141.251 161.749 140.423 161.71C141.155 161.327 141.74 160.717 142.09 159.974C142.44 159.23 142.535 158.394 142.361 157.591L141.778 155.141C141.665 154.659 141.457 154.204 141.167 153.802C140.876 153.4 140.508 153.058 140.084 152.798C139.661 152.537 139.189 152.362 138.697 152.282C138.204 152.202 137.701 152.22 137.216 152.333C138.193 152.107 139.04 151.504 139.571 150.659C140.101 149.814 140.272 148.794 140.046 147.824L139.463 145.373C139.234 144.404 138.627 143.563 137.775 143.037C136.923 142.511 135.895 142.341 134.917 142.566L134.489 142.668C135.036 142.542 135.552 142.309 136.008 141.984C136.464 141.658 136.85 141.246 137.144 140.771C137.437 140.295 137.633 139.767 137.719 139.216C137.805 138.666 137.78 138.104 137.645 137.563L134.969 126.195C134.842 125.652 134.608 125.14 134.279 124.688C133.951 124.236 133.535 123.853 133.057 123.561C132.578 123.27 132.045 123.076 131.49 122.991C130.935 122.905 130.368 122.93 129.823 123.064L109.772 127.778L109.669 127.318C109.534 126.778 109.509 126.215 109.595 125.665C109.681 125.114 109.877 124.586 110.17 124.111C110.464 123.635 110.85 123.223 111.306 122.897C111.762 122.572 112.278 122.339 112.825 122.213L133.031 117.534C133.576 117.4 134.143 117.375 134.698 117.46C135.253 117.545 135.785 117.739 136.264 118.031C136.743 118.322 137.159 118.705 137.487 119.157C137.815 119.609 138.049 120.122 138.176 120.665L140.852 132.032C140.987 132.573 141.012 133.135 140.926 133.686C140.84 134.237 140.645 134.765 140.351 135.24C140.057 135.715 139.671 136.127 139.216 136.453C138.76 136.779 138.243 137.011 137.696 137.137L138.125 137.035C139.103 136.811 140.131 136.98 140.983 137.507C141.835 138.033 142.442 138.873 142.67 139.843L143.253 142.293C143.48 143.264 143.309 144.283 142.778 145.129C142.248 145.974 141.401 146.576 140.423 146.803C141.401 146.578 142.429 146.748 143.281 147.274C144.133 147.801 144.74 148.641 144.969 149.611L145.552 152.061C145.74 152.861 145.659 153.699 145.321 154.449C144.984 155.199 144.408 155.818 143.682 156.213C144.509 156.247 145.301 156.548 145.939 157.07C146.577 157.592 147.025 158.307 147.216 159.106L147.799 161.556C148.026 162.522 147.86 163.537 147.336 164.382C146.813 165.226 145.974 165.832 145.003 166.066C145.745 166.185 146.435 166.52 146.985 167.029C147.535 167.538 147.92 168.198 148.09 168.925L148.673 171.375C148.785 171.859 148.798 172.36 148.714 172.849C148.629 173.338 148.447 173.806 148.179 174.225C147.911 174.644 147.563 175.007 147.153 175.292C146.743 175.576 146.281 175.778 145.792 175.885L145.243 176.021L144.883 174.455C144.708 173.719 144.313 173.052 143.75 172.542C143.187 172.032 142.482 171.703 141.727 171.596Z" fill="#008F7E"/>
<path d="M100.905 163.752V213.049H110.098H118.914H129.909H138.725H148.828H157.644H167.747H176.546H186.426V163.752H100.905Z" fill="#86C1A5"/>
<path opacity="0.7" d="M114.506 177.876C113.409 177.81 112.33 178.178 111.504 178.898C110.678 179.618 110.173 180.633 110.098 181.721V213.049H118.914V181.721C118.839 180.633 118.334 179.618 117.508 178.898C116.683 178.178 115.604 177.81 114.506 177.876Z" fill="#66AA7B"/>
<path opacity="0.7" d="M134.317 177.876C133.22 177.81 132.14 178.178 131.315 178.898C130.489 179.618 129.984 180.633 129.909 181.721V213.049H138.725V181.721C138.65 180.633 138.145 179.618 137.319 178.898C136.494 178.178 135.415 177.81 134.317 177.876Z" fill="#66AA7B"/>
<path opacity="0.7" d="M153.236 177.876C152.139 177.81 151.059 178.178 150.234 178.898C149.408 179.618 148.903 180.633 148.828 181.721V213.049H157.644V181.721C157.569 180.633 157.064 179.618 156.238 178.898C155.413 178.178 154.334 177.81 153.236 177.876Z" fill="#66AA7B"/>
<path opacity="0.7" d="M172.155 177.876C171.057 177.81 169.978 178.178 169.153 178.898C168.327 179.618 167.822 180.633 167.747 181.721V213.049H176.563V181.721C176.488 180.633 175.983 179.618 175.157 178.898C174.331 178.178 173.252 177.81 172.155 177.876Z" fill="#66AA7B"/>
<path d="M189.599 148.47H97.1824V164.109H189.599V148.47Z" fill="#2E895E"/>
<path opacity="0.6" d="M186.168 165.606H100.647V175.085H186.168V165.606Z" fill="#00535C"/>
<path d="M190.388 170.456H96.3935C95.1971 170.456 94.0497 169.985 93.2037 169.145C92.3577 168.306 91.8824 167.168 91.8824 165.981C91.8824 164.794 92.3577 163.655 93.2037 162.816C94.0497 161.977 95.1971 161.505 96.3935 161.505H190.388C191.584 161.505 192.732 161.977 193.578 162.816C194.424 163.655 194.899 164.794 194.899 165.981C194.899 167.168 194.424 168.306 193.578 169.145C192.732 169.985 191.584 170.456 190.388 170.456Z" fill="#00AE78"/>
<path d="M190.388 152.691H96.3935C95.1971 152.691 94.0497 152.219 93.2037 151.38C92.3577 150.541 91.8824 149.402 91.8824 148.215C91.8824 147.028 92.3577 145.89 93.2037 145.051C94.0497 144.211 95.1971 143.74 96.3935 143.74H190.388C191.584 143.74 192.732 144.211 193.578 145.051C194.424 145.89 194.899 147.028 194.899 148.215C194.899 149.402 194.424 150.541 193.578 151.38C192.732 152.219 191.584 152.691 190.388 152.691Z" fill="#00AE78"/>
<path opacity="0.7" d="M190.388 170.456H96.3935C95.1971 170.456 94.0497 169.985 93.2037 169.145C92.3577 168.306 91.8824 167.168 91.8824 165.981C91.8824 164.794 92.3577 163.655 93.2037 162.816C94.0497 161.977 95.1971 161.505 96.3935 161.505H190.388C191.584 161.505 192.732 161.977 193.578 162.816C194.424 163.655 194.899 164.794 194.899 165.981C194.899 167.168 194.424 168.306 193.578 169.145C192.732 169.985 191.584 170.456 190.388 170.456Z" fill="#66AA7B"/>
<path opacity="0.7" d="M190.388 152.691H96.3935C95.1971 152.691 94.0497 152.219 93.2037 151.38C92.3577 150.541 91.8824 149.402 91.8824 148.215C91.8824 147.028 92.3577 145.89 93.2037 145.051C94.0497 144.211 95.1971 143.74 96.3935 143.74H190.388C191.584 143.74 192.732 144.211 193.578 145.051C194.424 145.89 194.899 147.028 194.899 148.215C194.899 149.402 194.424 150.541 193.578 151.38C192.732 152.219 191.584 152.691 190.388 152.691Z" fill="#66AA7B"/>
<path opacity="0.55" d="M195.036 142.157C195.036 142.157 205.67 149.423 197.695 163.088L205.259 148.794L195.036 142.157Z" fill="#FF8E77"/>
<path opacity="0.61" d="M212.308 154.579L229.615 165.13L220.764 153.593L212.308 154.579Z" fill="#013035"/>
<path opacity="0.61" d="M76.0509 154.579L58.7443 165.13L67.5948 153.593L76.0509 154.579Z" fill="#013035"/>
<path opacity="0.28" d="M76.6513 156.928L83.8381 145.833C84.4664 144.864 85.3256 144.064 86.3398 143.503C87.3539 142.942 88.4918 142.638 89.6527 142.617L103.597 142.361C104.27 142.349 104.939 142.474 105.561 142.728C106.183 142.982 106.747 143.36 107.216 143.838C107.685 144.316 108.051 144.885 108.29 145.509C108.529 146.133 108.637 146.8 108.606 147.466L108.503 150.359L99.6525 147.722L112.277 151.38C112.603 151.477 112.902 151.648 113.149 151.881C113.396 152.114 113.584 152.401 113.697 152.72C113.811 153.038 113.847 153.379 113.803 153.714C113.759 154.049 113.635 154.369 113.443 154.648C113.076 155.174 112.579 155.6 111.999 155.882C111.42 156.165 110.777 156.297 110.132 156.264L96.4107 155.549L111.848 158.391C112.093 158.439 112.318 158.557 112.497 158.729C112.676 158.902 112.801 159.123 112.855 159.365C112.91 159.607 112.892 159.859 112.805 160.091C112.717 160.323 112.563 160.525 112.362 160.672C108.873 163.14 104.633 164.342 100.356 164.075L96.6337 163.871C96.8491 167.323 96.1988 170.774 94.7412 173.916C93.2835 177.057 91.0638 179.792 88.2805 181.875C88.2805 181.875 67.2862 180.82 76.6513 156.928Z" fill="#00535C"/>
<path d="M75.2791 155.379L82.4659 144.284C83.0942 143.316 83.9534 142.515 84.9675 141.954C85.9817 141.393 87.1195 141.089 88.2805 141.068L102.225 140.813C102.898 140.801 103.566 140.925 104.189 141.179C104.811 141.433 105.374 141.811 105.844 142.289C106.313 142.768 106.679 143.337 106.918 143.961C107.157 144.585 107.264 145.251 107.234 145.918L107.131 148.811L98.2802 146.19L110.887 149.798C111.214 149.894 111.512 150.066 111.759 150.298C112.006 150.531 112.194 150.818 112.308 151.137C112.422 151.456 112.458 151.796 112.414 152.131C112.369 152.466 112.246 152.786 112.054 153.065C111.686 153.592 111.189 154.017 110.61 154.3C110.031 154.583 109.388 154.714 108.743 154.682L95.0213 153.967L110.458 156.809C110.703 156.856 110.929 156.974 111.108 157.147C111.287 157.32 111.411 157.54 111.466 157.782C111.52 158.024 111.503 158.276 111.415 158.508C111.328 158.74 111.174 158.942 110.973 159.089C107.483 161.558 103.244 162.759 98.9663 162.492L95.2443 162.288C95.4393 165.442 94.9127 168.599 93.7037 171.522C92.4948 174.446 90.6349 177.06 88.2633 179.169C87.8514 179.541 87.3588 179.815 86.8235 179.968C86.2882 180.121 85.7245 180.151 85.1759 180.054C80.3733 179.271 67.5777 175.017 75.2791 155.379Z" fill="#EFBBAB"/>
<path d="M107.165 147.892C107.143 147.79 107.093 147.696 107.02 147.621C106.947 147.546 106.855 147.493 106.753 147.467L97.4569 145.169C97.3131 145.138 97.1628 145.164 97.0378 145.241C96.9127 145.318 96.8229 145.44 96.7872 145.582C96.7515 145.723 96.7728 145.873 96.8466 146C96.9204 146.126 97.0408 146.219 97.1824 146.258L106.479 148.556C106.572 148.578 106.669 148.576 106.762 148.551C106.854 148.526 106.938 148.478 107.007 148.412C107.075 148.345 107.126 148.263 107.153 148.172C107.181 148.081 107.185 147.985 107.165 147.892Z" fill="#FF8E77"/>
<path d="M96.7022 152.486C96.7022 152.338 96.6426 152.195 96.5364 152.089C96.4303 151.984 96.2863 151.925 96.1362 151.925C95.9861 151.925 95.8421 151.984 95.7359 152.089C95.6298 152.195 95.5702 152.338 95.5702 152.486C95.5702 152.486 95.4501 153.627 95.3472 154.903C95.3335 155.052 95.3801 155.2 95.4766 155.315C95.5731 155.43 95.7116 155.502 95.8618 155.515C96.0119 155.529 96.1613 155.483 96.2771 155.387C96.3929 155.291 96.4656 155.154 96.4792 155.005C96.5821 153.729 96.7022 152.606 96.7022 152.606C96.7063 152.566 96.7063 152.526 96.7022 152.486Z" fill="#FF8E77"/>
<path d="M97.5599 144.506C97.5599 144.357 97.5002 144.214 97.3941 144.109C97.2879 144.003 97.144 143.944 96.9938 143.944C96.8437 143.944 96.6998 144.003 96.5936 144.109C96.4875 144.214 96.4278 144.357 96.4278 144.506C96.4278 144.506 96.3078 145.646 96.2049 146.922C96.1912 147.071 96.2378 147.219 96.3343 147.334C96.4308 147.449 96.5693 147.521 96.7194 147.535C96.8695 147.548 97.0189 147.502 97.1347 147.406C97.2505 147.311 97.3232 147.173 97.3369 147.024C97.4398 145.765 97.5599 144.625 97.5599 144.625C97.564 144.585 97.564 144.545 97.5599 144.506Z" fill="#FF8E77"/>
<path d="M96.4277 161.982C96.4012 161.86 96.3345 161.75 96.2382 161.67C96.142 161.59 96.0216 161.544 95.896 161.539C95.2061 161.482 94.5262 161.339 93.8721 161.114C93.8007 161.082 93.7236 161.066 93.6454 161.065C93.5673 161.064 93.4898 161.08 93.418 161.11C93.3461 161.141 93.2814 161.186 93.2279 161.242C93.1744 161.299 93.1333 161.366 93.1072 161.439C93.081 161.512 93.0704 161.589 93.076 161.667C93.0816 161.744 93.1033 161.819 93.1397 161.888C93.1762 161.957 93.2265 162.017 93.2876 162.065C93.3487 162.114 93.4192 162.149 93.4947 162.169C94.2588 162.435 95.0545 162.601 95.8617 162.663C95.9361 162.665 96.0101 162.653 96.0797 162.626C96.1492 162.6 96.2129 162.561 96.2671 162.51C96.3212 162.46 96.3648 162.399 96.3953 162.332C96.4258 162.264 96.4427 162.192 96.4449 162.118C96.4445 162.072 96.4387 162.026 96.4277 161.982Z" fill="#FF8E77"/>
<path opacity="0.28" d="M212.36 158.306L205.173 147.211C204.545 146.243 203.686 145.442 202.671 144.881C201.657 144.32 200.519 144.016 199.358 143.995L185.414 143.74C184.741 143.728 184.073 143.852 183.45 144.106C182.828 144.36 182.265 144.738 181.795 145.216C181.326 145.695 180.96 146.264 180.721 146.888C180.482 147.512 180.375 148.178 180.405 148.845L180.508 151.738L189.359 149.168L176.666 152.793C176.34 152.889 176.041 153.061 175.794 153.293C175.547 153.526 175.359 153.814 175.245 154.132C175.131 154.451 175.095 154.791 175.139 155.126C175.184 155.461 175.307 155.781 175.5 156.06C175.867 156.587 176.364 157.012 176.943 157.295C177.523 157.578 178.165 157.709 178.81 157.677L192.532 156.962L177.095 159.804C176.85 159.851 176.624 159.969 176.445 160.142C176.266 160.315 176.142 160.535 176.087 160.777C176.033 161.019 176.05 161.271 176.138 161.503C176.225 161.735 176.379 161.937 176.58 162.084C180.07 164.553 184.309 165.754 188.587 165.487L192.309 165.283C192.084 168.748 192.731 172.214 194.192 175.368C195.653 178.523 197.883 181.268 200.679 183.355C200.679 183.355 221.708 182.232 212.36 158.306Z" fill="#00535C"/>
<path d="M213.732 156.775L206.545 145.68C205.912 144.704 205.045 143.899 204.021 143.338C202.997 142.777 201.849 142.476 200.679 142.464L186.734 142.208C186.062 142.196 185.393 142.321 184.771 142.575C184.149 142.829 183.585 143.207 183.116 143.685C182.647 144.163 182.281 144.732 182.042 145.356C181.803 145.98 181.695 146.646 181.726 147.313L181.829 150.206L190.679 147.637L178.055 151.295C177.729 151.392 177.43 151.563 177.183 151.796C176.936 152.029 176.748 152.316 176.634 152.635C176.521 152.953 176.485 153.294 176.529 153.629C176.573 153.964 176.696 154.284 176.889 154.563C177.256 155.089 177.753 155.515 178.333 155.797C178.912 156.08 179.554 156.212 180.199 156.179L193.921 155.464L178.484 158.306C178.239 158.354 178.013 158.472 177.834 158.644C177.656 158.817 177.531 159.038 177.477 159.28C177.422 159.522 177.44 159.774 177.527 160.006C177.615 160.238 177.768 160.44 177.97 160.587C181.459 163.055 185.699 164.257 189.976 163.99L193.698 163.786C193.51 166.981 194.063 170.177 195.315 173.127C196.567 176.077 198.484 178.703 200.919 180.803C201.295 181.115 201.737 181.34 202.212 181.461C202.686 181.582 203.183 181.595 203.664 181.5C208.449 180.752 221.485 176.565 213.732 156.775Z" fill="#EFBBAB"/>
<path d="M181.812 149.287C181.834 149.186 181.884 149.092 181.957 149.017C182.029 148.942 182.122 148.888 182.223 148.862L191.52 146.565C191.664 146.534 191.814 146.559 191.939 146.636C192.064 146.713 192.154 146.835 192.189 146.977C192.225 147.119 192.204 147.269 192.13 147.395C192.056 147.521 191.936 147.614 191.794 147.654L182.498 149.951C182.352 149.987 182.198 149.964 182.069 149.888C181.941 149.811 181.848 149.687 181.812 149.543C181.792 149.459 181.792 149.371 181.812 149.287Z" fill="#FF8E77"/>
<path d="M192.292 153.899C192.292 153.75 192.351 153.607 192.457 153.502C192.564 153.397 192.708 153.337 192.858 153.337C193.008 153.337 193.152 153.397 193.258 153.502C193.364 153.607 193.424 153.75 193.424 153.899C193.424 153.899 193.544 155.039 193.647 156.315C193.653 156.389 193.645 156.463 193.623 156.534C193.601 156.605 193.565 156.67 193.517 156.727C193.469 156.784 193.411 156.831 193.345 156.866C193.279 156.9 193.206 156.921 193.132 156.928C192.982 156.941 192.833 156.895 192.717 156.8C192.601 156.704 192.528 156.566 192.515 156.417C192.412 155.141 192.292 154.018 192.292 154.018C192.288 153.978 192.288 153.939 192.292 153.899Z" fill="#FF8E77"/>
<path d="M191.434 145.918C191.434 145.769 191.494 145.626 191.6 145.521C191.706 145.416 191.85 145.356 192 145.356C192.15 145.356 192.294 145.416 192.4 145.521C192.506 145.626 192.566 145.769 192.566 145.918C192.566 145.918 192.686 147.058 192.789 148.334C192.796 148.408 192.788 148.483 192.766 148.553C192.743 148.624 192.707 148.69 192.66 148.746C192.612 148.803 192.553 148.85 192.487 148.885C192.421 148.919 192.349 148.94 192.274 148.947C192.2 148.954 192.125 148.946 192.054 148.924C191.983 148.902 191.916 148.866 191.859 148.819C191.802 148.771 191.754 148.713 191.72 148.648C191.685 148.582 191.664 148.51 191.657 148.437C191.554 147.177 191.434 146.037 191.434 146.037C191.43 145.998 191.43 145.958 191.434 145.918Z" fill="#FF8E77"/>
<path d="M192.583 163.411C192.61 163.289 192.677 163.18 192.773 163.1C192.869 163.02 192.989 162.974 193.115 162.969C193.805 162.911 194.485 162.768 195.139 162.543C195.21 162.512 195.287 162.495 195.366 162.494C195.444 162.494 195.521 162.509 195.593 162.54C195.665 162.57 195.73 162.615 195.783 162.672C195.837 162.728 195.878 162.795 195.904 162.868C195.93 162.941 195.941 163.019 195.935 163.096C195.929 163.174 195.908 163.249 195.871 163.318C195.835 163.386 195.785 163.447 195.723 163.495C195.662 163.543 195.592 163.579 195.516 163.599C194.752 163.864 193.957 164.03 193.149 164.092C193.075 164.094 193.001 164.082 192.931 164.056C192.862 164.03 192.798 163.99 192.744 163.94C192.69 163.889 192.646 163.828 192.616 163.761C192.585 163.694 192.568 163.621 192.566 163.547C192.566 163.502 192.572 163.456 192.583 163.411Z" fill="#FF8E77"/>
</g>
<defs>
<clipPath id="clip0">
<rect width="282" height="213" fill="white"/>
</clipPath>
</defs>
</svg>
